{
	"mapwidth":"600",
	"mapheight":"540",
	"categories":[],
	"levels":[
		{
			"id":"australia",
			"title":"Australia",
			"map":"public/mapplic/maps/bandung.svg",
			"locations":[
				{
					"id": "coblong",
					"title": "Coblong",
					"description": "<p>New South Wales</p>",
					"pin": "hidden",
					"fill": "#DDC9E6",
					"x": "0.3559",
					"y": "0.3976"
				},
				{
					"id": "cicendo",
					"title": "Cicendo",
					"description": "<p>Northern Territory</p>",
					"pin": "hidden",
					"fill": "#BBDDF3",
					"x": "0.2014",
					"y": "0.4762"
				},
				{
					"id": "bawet",
					"title": "Bandung Wetan",
					"description": "Melbourne.",
					"pin": "hidden",
					"fill": "#BC93CF",
					"x": "0.3623",
					"y": "0.4929"
				},
				{
					"id": "cibkal",
					"title": "Cibeunying Kaler",
					"description": "Perth description.",
					"pin": "hidden",
					"fill": "#CDADDA",
					"x": "0.4417",
					"y": "0.3833"
				},
				{
					"id": "andir",
					"title": "Andir",
					"description": "Perth description.",
					"pin": "hidden",
					"fill": "#7DBBE6",
					"x": "0.1713",
					"y": "0.5357"
				},
				{
					"id": "bojkid",
					"title": "Bokongloa Kidul",
					"description": "<p>New South Wales</p>",
					"pin": "hidden",
					"fill": "#F6D869",
					"x": "0.2701",
					"y": "0.7571"
				},
				{
					"id": "astar",
					"title": "Astana Anyar",
					"description": "<p>Northern Territory</p>",
					"pin": "hidden",
					"fill": "#F4CE49",
					"x": "0.2851",
					"y": "0.6357"
				},
				{
					"id": "bankid",
					"title": "Bandung Kidul",
					"description": "Melbourne.",
					"pin": "hidden",
					"fill": "#5D6977",
					"x": "0.4310",
					"y": "0.7857"
				},
				{
					"id": "lengkong",
					"title": "Lengkong",
					"description": "Perth description.",
					"pin": "hidden",
					"fill": "#5DD58D",
					"x": "0.4138",
					"y": "0.6571"
				},
				{
					"id": "cidadap",
					"title": "Cidadap",
					"description": "Perth description.",
					"pin": "hidden",
					"fill": "#EDE3F1",
					"x": "0.3022",
					"y": "0.2786"
				},
				{
					"id": "sukasari",
					"title": "Sukasari",
					"description": "<p>New South Wales</p>",
					"pin": "hidden",
					"fill": "#EDF7FC",
					"x": "0.2121",
					"y": "0.2929"
				},
				{
					"id": "sukajadi",
					"title": "Sukajadi",
					"description": "<p>Northern Territory</p>",
					"pin": "hidden",
					"fill": "#DDEDF9",
					"x": "0.2379",
					"y": "0.4024"
				},
				{
					"id": "bojkal",
					"title": "Bojongloa Kaler",
					"description": "Melbourne.",
					"pin": "hidden",
					"fill": "#F9E18B",
					"x": "0.2366",
					"y": "0.6476"
				},
				{
					"id": "bankul",
					"title": "Bandung Kulon",
					"description": "Perth description.",
					"pin": "hidden",
					"fill": "#FDF5D7",
					"x": "0.0726",
					"y": "0.6643"
				},
				{
					"id": "bacip",
					"title": "Babakan Ciparay",
					"description": "Perth description.",
					"pin": "hidden",
					"fill": "#FAEAB1",
					"x": "0.1628",
					"y": "0.7262"
				},
				{
					"id": "cibkid",
					"title": "Cibeunying Kaler",
					"description": "<p>New South Wales</p>",
					"pin": "hidden",
					"fill": "#9C71AE",
					"x": "0.4997",
					"y": "0.4857"
				},
				{
					"id": "regol",
					"title": "Regol",
					"description": "<p>Northern Territory</p>",
					"pin": "hidden",
					"fill": "#99E5B9",
					"x": "0.3495",
					"y": "0.6976"
				},
				{
					"id": "batnung",
					"title": "Batununggal",
					"description": "Melbourne.",
					"pin": "hidden",
					"fill": "#59C182",
					"x": "0.4761",
					"y": "0.6000"
				},
				{
					"id": "uber",
					"title": "Ujungberung",
					"description": "Perth description.",
					"pin": "hidden",
					"fill": "#95D6B1",
					"x": "0.8237",
					"y": "0.5167"
				},
				{
					"id": "cibiru",
					"title": "Cibiru",
					"description": "Perth description.",
					"pin": "hidden",
					"fill": "#59BC80",
					"x": "0.8967",
					"y": "0.5714"
				},
				{
					"id": "mandalajati",
					"title": "Mandalajati",
					"description": "<p>New South Wales</p>",
					"pin": "hidden",
					"fill": "#B8E4CA",
					"x": "0.6456",
					"y": "0.4571"
				},
				{
					"id": "kircon",
					"title": "Kiaracondong",
					"description": "<p>Northern Territory</p>",
					"pin": "hidden",
					"fill": "#56AD79",
					"x": "0.5361",
					"y": "0.6167"
				},
				{
					"id": "antapani",
					"title": "Antapani",
					"description": "Melbourne.",
					"pin": "hidden",
					"fill": "#4D7B60",
					"x": "0.5962",
					"y": "0.5690"
				},
				{
					"id": "rancasari",
					"title": "Rancasari",
					"description": "Perth description.",
					"pin": "hidden",
					"fill": "#9CA6B0",
					"x": "0.6692",
					"y": "0.7762"
				},
				{
					"id": "arcamanik",
					"title": "Arcamanik",
					"description": "Perth description.",
					"pin": "hidden",
					"fill": "#508B67",
					"x": "0.6756",
					"y": "0.5833"
				},
				{
					"id": "gedebage",
					"title": "Gedebage",
					"description": "Perth description.",
					"pin": "hidden",
					"fill": "#BBC3CA",
					"x": "0.7829",
					"y": "0.7714"
				},
				{
					"id": "cinambo",
					"title": "Cinambo",
					"description": "<p>New South Wales</p>",
					"pin": "hidden",
					"fill": "#539B6F",
					"x": "0.7379",
					"y": "0.6262"
				},
				{
					"id": "panyileukan",
					"title": "Panyileukan",
					"description": "<p>Northern Territory</p>",
					"pin": "hidden",
					"fill": "#55AC78",
					"x": "0.8409",
					"y": "0.6619"
				},
				{
					"id": "bubat",
					"title": "Buah Batu",
					"description": "Melbourne.",
					"pin": "hidden",
					"fill": "#7D8A96",
					"x": "0.5490",
					"y": "0.7548"
				},
				{
					"id": "surban",
					"title": "Sumur Bandung",
					"description": "Perth description.",
					"pin": "hidden",
					"fill": "#AD7AC3",
					"x": "0.3559",
					"y": "0.5571"
				}
			]
		}
	]
}